id,date,contents,is_display,created_at,updated_at
1,2022-03-23,サービスをリリースしました！<br>いろんな機能を作っていきますので、今後ともよろしくお願いいたします。,1,2022/03/23 0:00:00,2022/03/23 0:00:00
2,2022-03-24,現在データが不十分です。ご了承くださいませ。,1,2022/03/24 0:00:00,2022/03/24 0:00:00
3,2022-03-29,旧国名を見る機能がいい感じになってます。画面の右下から使ってみてください！,1,2022/03/29 0:00:00,2022/03/29 0:00:00
4,2022-03-30,信長の野望 新生が2022年7月21日に販売されることが決定しました！パチパチ,1,2022/03/30 0:00:00,2022/03/30 0:00:00
5,2022-04-13,googleの広告の承認がおりました！！いいサイトにして稼ぐぞー,1,2022/04/13 0:00:00,2022/04/13 0:00:00
6,2022-04-23,信長の野望 新生の「具申・助言」情報が出たのでまとめたよ。,1,2022/04/23 0:00:00,2022/04/23 0:00:00
7,2022-05-12,武将の画像データを揃え始めました！目が痛くなってきた。,1,2022/05/12 0:00:00,2022/05/12 0:00:00
8,2022-05-15,ブルーライトカットメガネを買いました。パソコンのナイトモードも駆使してます。,1,2022/05/15 0:00:00,2022/05/15 0:00:00
9,2022-05-16,列伝と画像を揃え始めたら、アクセスが倍になったぞ。倍と言っても5->10程度ですが...,1,2022/05/16 0:00:00,2022/05/16 0:00:00
10,2022-05-18,武将一覧ページにソート機能を作成しめっちゃいい感じになりましたよい！,1,2022/05/18 0:00:00,2022/05/18 0:00:00
11,2022-05-25,毎日サイト更新しているので、PV数が右肩上がり！毎日10pvは超えるくらいになってきた。,1,2022/05/25 0:00:00,2022/05/25 0:00:00
12,2022-05-29,新信長の野望 が出るだって？やるっきゃないだろう！,1,2022/05/29 0:00:00,2022/05/29 0:00:00
13,2022-06-01,検索機能いい感じにできました！,1,2022/06/01 0:00:00,2022/06/01 0:00:00
14,2022-06-05,記事数が30に達しました！この１週間はリライトに力を入れていきます！,1,2022/06/05 0:00:00,2022/06/05 0:00:00
15,2022-06-13,大手ゲーム攻略サイトは歴史の記事までアップできないだろう。差別化だ！,1,2022/06/13 0:00:00,2022/06/13 0:00:00
16,2022-06-14,とうとう「新信長の野望」がリリースされました。楽しい！,1,2022/06/14 0:00:00,2022/06/14 0:00:00
17,2022-06-15,「新信長の野望」の攻略記事のおかげでPVが超絶x3アップしました。,1,2022/06/15 0:00:00,2022/06/15 0:00:00
18,2022-06-20,大手ゲーム攻略サイトはまとめるのが早すぎるよ！,1,2022/06/20 0:00:00,2022/06/20 0:00:00
19,2022-06-29,SSL証明書周りの障害で1日ほど繋がりませんでした。ごめんなさーい。,1,2022/06/29 0:00:00,2022/06/29 0:00:00
20,2022-07-04,武将診断メーカーページを作成しました。ぜひ使ってみてください！,1,2022/07/04 0:00:00,2022/07/04 0:00:00
21,2022-07-05,もうすぐ信長の野望 新生が発売だ。楽しみだね。,1,2022/07/06 0:00:00,2022/07/06 0:00:00
22,2022-07-20,サイト開設して4ヶ月。月間PVが15000を超えました。ありがとうございます！,1,2022/07/20 0:00:00,2022/07/20 0:00:00
23,2022-08-01,ドタバタで更新できてませんでした。今日からアップしていきますのでよろしく！,1,2022/08/01 0:00:00,2022/08/01 0:00:00
24,2022-08-02,20000PVに来たぜ！乗り遅れたけど新生の攻略情報のアップ頑張るぞ！,1,2022/08/02 0:00:00,2022/08/02 0:00:00
25,2022-08-03,YouTuberのおろちんゆーって知ってる？ハマりました。,1,2022/08/03 0:00:00,2022/08/03 0:00:00
26,2022-08-04,誕生日です。29歳になりました。これからもよろしくお願いします。,1,2022/08/04 0:00:00,2022/08/04 0:00:00
27,2022-08-05,新生むずくないか？AIが好戦的だぁぁ〜〜〜〜,1,2022/08/05 0:00:00,2022/08/05 0:00:00
28,2023-01-16,月間30000pvになりました〜,1,2023/01/16 0:00:00,2023/01/16 0:00:00
29,2023-01-27,月間40000pvになりました。「どうする家康」バブルが来ている！,1,2023/01/27 0:00:00,2023/01/27 0:00:00
30,2023-02-13,月間50000pvになりました。最近は合戦情報のまとめを頑張っています。,1,2023/02/13 0:00:00,2023/02/13 0:00:00
31,2023-02-16,月間60000pvになりました。爆上がり中です,1,2023/02/16 0:00:00,2023/02/16 0:00:00
32,2023-02-23,月間70000pvになりました!,1,2023/02/26 0:00:00,2023/02/26 0:00:00
33,2023-03-02,800以上の合戦情報を今整理中です。250超えましたがまだまだあります。がんばるぞい!,1,2023/03/02 0:00:00,2023/03/02 0:00:00
34,2023-03-03,利用者さんのお問合わせで発覚した神保氏張の武将列伝の間違いを修正しました。ありがとうございます！,1,2023/03/03 0:00:00,2023/03/03 0:00:00
35,2023-03-04,月間80000pvになりました!いぇ〜い！,1,2023/03/04 0:00:00,2023/03/04 0:00:00
36,2023-04-17,月間90000pvになりました!もうすぐ10万だ！,1,2023/04/17 0:00:00,2023/03/17 0:00:00
37,2023-05-27,月間100000pvになりました!うれしい！ありがとうございます！これからも励みます！！,1,2023/05/27 0:00:00,2023/05/27 0:00:00
38,2023-06-09,月間110000pvになりました！,1,2023/06/09 0:00:00,2023/06/09 0:00:00
39,2023-06-15,ユーザーの指摘からデータの不具合を修正しました,1,2023/06/15 0:00:00,2023/06/15 0:00:00
40,2023-06-18,月間120000pvになりました！,1,2023/06/18 0:00:00,2023/06/18 0:00:00
41,2023-06-30,月間130000pvになりました！,1,2023/06/30 0:00:00,2023/06/30 0:00:00
42,2023-07-11,速度改善に力を入れています！,1,2023/07/11 0:00:00,2023/07/11 0:00:00
43,2023-07-31,月間140000pvになりました！,1,2023/07/31 0:00:00,2023/07/31 0:00:00
44,2023-08-07,月間150000pvになりました！,1,2023/08/07 0:00:00,2023/08/07 0:00:00
45,2023-08-13,月間160000pvになりました！良い！,1,2023/08/13 0:00:00,2023/08/13 0:00:00
46,2023-08-16,月間170000pvになりました！勢いがいいね！,1,2023/08/16 0:00:00,2023/08/16 0:00:00
47,2023-08-17,お問い合わせが使えなかったみたいですみません。,1,2023/08/17 0:00:00,2023/08/17 0:00:00
48,2023-08-19,月間180000pvになりました！,1,2023/08/19 0:00:00,2023/08/19 0:00:00
49,2023-08-30,最近更新ないからPV下がってきているけど、新生pkのまとめ中です。google待っとれ！,1,2023/08/30 0:00:00,2023/08/30 0:00:00
