id,name,level,cost,period,effect,created_at,updated_at
1,屋敷,1,0,0,なし,2021/10/09 0:00:00,2021/10/09 0:00:00
2,館,1,0,0,なし,2021/10/09 0:00:00,2021/10/09 0:00:00
3,二層天守,2,1000,30,本丸の耐久が500上昇し、出陣部隊の攻撃力を小上昇,2021/10/09 0:00:00,2021/10/09 0:00:00
4,僧坊,2,1000,30,本丸の耐久が500上昇し、出陣部隊の士気を小上昇,2021/10/09 0:00:00,2021/10/09 0:00:00
5,殿社,2,1000,30,本丸の耐久が500上昇し、出陣部隊の防御力を小上昇,2021/10/09 0:00:00,2021/10/09 0:00:00
6,三層天守,3,2500,40,本丸の耐久が1000上昇し、出陣部隊の攻撃力を上昇、民忠+1,2021/10/09 0:00:00,2021/10/09 0:00:00
7,御坊,3,2500,40,本丸の耐久が1500上昇し、出陣部隊の士気を大上昇、民忠+1,2021/10/09 0:00:00,2021/10/09 0:00:00
8,御殿,3,2500,40,本丸の耐久が1500上昇し、出陣部隊の防御力を大上昇、民忠+1,2021/10/09 0:00:00,2021/10/09 0:00:00
9,四層天守,4,4000,50,本丸の耐久が2000上昇し、出陣部隊の攻撃力を大上昇、民忠+2,2021/10/09 0:00:00,2021/10/09 0:00:00
10,巨城天守,5,0,0,本丸の耐久が3000上昇し、出陣部隊の戦闘力を大上昇、民忠+3,2021/10/09 0:00:00,2021/10/09 0:00:00